1469142000000,16
1469142060000,16
1469142120000,17
1469142180000,18
1469142240000,20
1469142300000,24
1469142360000,26
1469142420000,20
1469142480000,13
1469142540000,13
1469142600000,13
1469142660000,13
1469142720000,15
1469142780000,30
1469142840000,26
1469142900000,26
1469142960000,25
1469143020000,24
1469143080000,24
1469143140000,24
1469143200000,20
1469143260000,22
1469143320000,22
1469143380000,22
1469143440000,25
1469143500000,23
1469143560000,23
1469143620000,23
1469143680000,23
1469143740000,23
1469143800000,23
1469143860000,24
1469143920000,24
1469143980000,24
1469144040000,25
1469144100000,25
1469144160000,25
1469144220000,25
1469144280000,26
1469144340000,26
1469144400000,26
1469144460000,26
1469144520000,27
1469144580000,27
1469144640000,30
1469144700000,27
1469144760000,30
1469144820000,30
1469144880000,30
1469144940000,30
1469145000000,30
1469145060000,30
1469145120000,30
1469145180000,30
1469145240000,30
1469145300000,30
1469145360000,30
1469145420000,30
1469145480000,30
1469145540000,30
1469145600000,29
1469145660000,29
1469145720000,29
1469145780000,29
1469145840000,28
1469145900000,28
1469145960000,28
1469146020000,28
1469146080000,27
1469146140000,27
1469146200000,27
1469146260000,27
1469146320000,26
1469146380000,26
1469146440000,26
1469146500000,26
1469146560000,26
1469146620000,26
1469146680000,26
1469146740000,25
1469146800000,25
1469146860000,25
1469146920000,25
1469146980000,25
1469147040000,24
1469147100000,24
1469147160000,24
1469147220000,20
1469147280000,20
1469147340000,20
1469147400000,20
1469147460000,20
1469147520000,19
1469147580000,19
1469147640000,17
1469147700000,17
1469147760000,15
1469147820000,15
1469147880000,14
1469147940000,13